{
  "conditions": {
    "items": {
      "packets": [
        {
          "name": "Casa Basic",
          "actions": {
            "discountType": "fixed",
            "discountAmount": "5.00"
          }
        },
        {
          "name": "Casa Sicura",
          "actions": {
            "discountType": "percentage",
            "discountAmount": "50.00"
          }
        }
      ],
      "products": [
        {
          "name": "ge-home",
          "actions": {
            "discountType": "percentage",
            "discountAmount": "10.00"
          }
        }
      ]
    },
    "validTo": "2023-06-30",
    "validFrom": "2023-06-01"
  }
}